<?xml version="1.0" encoding="utf-8"?>
<!-- Generator: Adobe Illustrator 16.0.0, SVG Export Plug-In . SVG Version: 6.00 Build 0)  -->
<!DOCTYPE svg PUBLIC "-//W3C//DTD SVG 1.1//EN" "http://www.w3.org/Graphics/SVG/1.1/DTD/svg11.dtd">
<svg version="1.1" id="Layer_1" xmlns="http://www.w3.org/2000/svg" xmlns:xlink="http://www.w3.org/1999/xlink" x="0px" y="0px"
	 width="32px" height="32px" viewBox="0 0 32 32" enable-background="new 0 0 32 32" xml:space="preserve">
<g>
	<path d="M27,31V5h-6V4.5C21,3.673,20.327,3,19.5,3h-0.524c-0.232-1.154-1.254-2.025-2.476-2.025S14.257,1.846,14.024,3H13.5
		C12.673,3,12,3.673,12,4.5V5H6v26H27z M13,6V5V4.5C13,4.224,13.225,4,13.5,4H15V3.5c0-0.841,0.659-1.525,1.5-1.525S18,2.659,18,3.5
		V4h1.5C19.775,4,20,4.224,20,4.5V5v1v0.5C20,6.776,19.775,7,19.5,7h-6C13.225,7,13,6.776,13,6.5V6z M26,30H7V6h5v0.5
		C12,7.327,12.673,8,13.5,8h6C20.327,8,21,7.327,21,6.5V6h5V30z"/>
	<path d="M12.562,15.986c-0.311-0.311-0.813-0.311-1.125,0c-0.311,0.311-0.311,0.814,0,1.125l2.812,2.812
		c0.311,0.312,0.814,0.312,1.125,0l6.188-6.187c0.311-0.311,0.311-0.814,0-1.125c-0.312-0.311-0.814-0.311-1.125,0l-5.625,5.625
		L12.562,15.986z"/>
</g>
</svg>
